Name,Division,Sex,Event,Equipment,WeightClassKg,Best3BenchKg,Best3DeadliftKg,TotalKg,Team,Place
Cristina Oliveira Pimenta,FO,F,B,Raw,67.5,67.5,,67.5,Apollo,1
Vânia Lima,FO,F,B,Raw,67.5,55,,55,Reforce,2
Ana Paula Galvão,FO,F,B,Raw,67.5,45,,45,Monsters,3
Alcione Oliveira Silva,FO,F,B,Raw,75,100,,100,Apollo,1
Monica Aparecida Nogueira,FO,F,B,Raw,82.5,70,,70,Monsters,1
Rosimeire Santos Souza,F 45-49,F,B,Raw,56,50,,50,Apollo,1
João Vitor Rodrigues Claro,MT 13-15,M,B,Raw,56,62.5,,62.5,Beto Ninja,1
Bruno Cunha Dos Santos Teixeira,MT 13-15,M,B,Raw,60,52.5,,52.5,Apollo,1
Eduardo Haggar da Silva,MT 13-15,M,B,Raw,60,35,,35,Beto Ninja,2
Murieu Moreira Moreno,MT 13-15,M,B,Raw,75,55,,55,Beto Ninja,1
Gabriel Schineider da Silva,MJ,M,B,Raw,67.5,80,,80,Beto Ninja,1
David Nascimento,MJ,M,B,Raw,75,140,,140,Blitzkrieg,1
Daniel Dakuzaku,MJ,M,B,Raw,82.5,130,,130,Blitzkrieg,1
Renan Elias Gomes,MJ,M,B,Raw,90,130,,130,Espaço Physico,1
Patrick Souza,MJ,M,B,Raw,100,170,,170,São Vicente,1
Eduardo José de Souza,MJ,M,B,Raw,100,135,,135,Reforce,2
Sinuhe Ceotto,MJ,M,B,Raw,125,185,,185,Blitzkrieg,1
José Roberto Furtado,MJ ES,M,B,Raw,67.5,65,,65,Arcanjos do Powerlifting,1
Eduardo Arenas,MO ES,M,B,Raw,100,150,,150,,1
Serafim Rocha,M 65-69 ES,M,B,Raw,125,112.5,,112.5,Serafim Rocha,1
Alex Isaias Laguna Mantazole,MO,M,B,Raw,56,,,,Monsters,DQ
Leandro Presta Silva,MO,M,B,Raw,60,90,,90,Apollo,1
Jaider Ramos,MO,M,B,Raw,75,155,,155,Monsters,1
Makson Pereira dos Santos,MO,M,B,Raw,75,127.5,,127.5,Reforce,2
Diego Luiz de Almeida Bento,MO,M,B,Raw,75,120,,120,Espaço Physico,3
Erismar Dias Dos Santos,MO,M,B,Raw,75,90,,90,Beto Ninja,4
Luiz Carlos Rufino da Silva,MO,M,B,Raw,82.5,145,,145,Apollo,1
Anderson Genuíno dos Reis,MO,M,B,Raw,82.5,142.5,,142.5,,2
Hilton M. Otaviano,MO,M,B,Raw,82.5,140,,140,Monsters,3
José Augusto da Silva,MO,M,B,Raw,82.5,130,,130,Arcanjos do Powerlifting,4
Felipe de Freitas Fernandes,MO,M,B,Raw,82.5,130,,130,Corel F3,5
Lucas Augusto Ferro e Silva,MO,M,B,Raw,90,192.5,,192.5,Blitzkrieg,1
Marcos Antônio da Silva Souza,MO,M,B,Raw,90,190,,190,Apollo,2
Edmar de Souza,MO,M,B,Raw,90,175,,175,Monsters,3
Lucas Correa Menezes,MO,M,B,Raw,90,120,,120,Monsters,4
Jose Basilio Lemes Neto,MO,M,B,Raw,90,100,,100,Seme,5
Luiz Antonio Motta Filho,MO,M,B,Raw,100,175,,175,,1
Alex Soares Gomes,MO,M,B,Raw,100,160,,160,CLP Power,2
Tiago Barreto,MO,M,B,Raw,100,130,,130,Apollo,3
Everton Soares Garcia,MO,M,B,Raw,140,215,,215,Reforce,1
Gelson de Oliveira,MO,M,B,Raw,140+,160,,160,,1
Marcelo Diego Detomazi,MO,M,B,Raw,110,,,,Monsters,DQ
Jaime Ferreira Reverte,M 40-44,M,B,Raw,82.5,140,,140,Apollo,1
Márcio Arcanjo de Barros,M 40-44,M,B,Raw,82.5,120,,120,,2
Williams Gomes da Silva,M 40-44,M,B,Raw,90,130,,130,Apollo,1
Charles Soares Gomes,M 40-44,M,B,Raw,100,160,,160,Apollo,1
Reginaldo Aparecido Raimundo,M 40-44,M,B,Raw,100,130,,130,Monsters,2
Estefanio Climaco Dos Santos,M 40-44,M,B,Raw,110,140,,140,Apollo,1
Sérgio Augusti,M 45-49,M,B,Raw,82.5,90,,90,Espaço Physico,1
Daniel Gomes,M 45-49,M,B,Raw,90,120,,120,Espaço Physico,1
Alberto Carlos Seabra Norce,M 45-49,M,B,Raw,90,100,,100,Beto Ninja,2
Marcelo Cesar de Oliveira,M 45-49,M,B,Raw,100,125,,125,A5,1
Marco Aurelio Gomes de Lima,M 45-49,M,B,Raw,110,150,,150,Apollo,1
Milton Luiz Vaccari,M 50-54,M,B,Raw,90,140,,140,Serafim Rocha,1
Valfrido da Silva,M 50-54,M,B,Raw,90,97.5,,97.5,Apollo,2
Paulo dos Santos Silva,M 50-54,M,B,Raw,100,120,,120,Apollo,1
Jose Angelito Duarte dos Santos,M 50-54,M,B,Raw,110,140,,140,Apollo,1
Luiz Carlos Duarte Silva,M 65-69,M,B,Raw,82.5,110,,110,Apollo,1
Nicole Graziele de Araújo,FT 13-15,F,D,Raw,56,,95,95,Blitzkrieg,1
Emily Norce,FT 13-15,F,D,Raw,82.5,,110,110,Beto Ninja,1
Fernanda Maria Montanha,FT 18-19,F,D,Raw,67.5,,120,120,Super treino,1
Larissa Rodrigues Peixoto,FJ,F,D,Raw,52,,100,100,Beto Ninja,1
Cristina Oliveira Pimenta,FO,F,D,Raw,67.5,,145,145,Apollo,1
Vânia Lima,FO,F,D,Raw,67.5,,130,130,Reforce,2
Carla Pádua Garcia,FO,F,D,Raw,75,,190,190,Saúde Ativa,1
Alcione Oliveira Silva,FO,F,D,Raw,75,,160,160,Apollo,2
Monica Aparecida Nogueira,FO,F,D,Raw,82.5,,150,150,Monsters,1
Daila Costa,FO,F,D,Raw,82.5,,130,130,Saúde Ativa,2
Rosimeire Santos Souza,F 45-49,F,D,Raw,56,,90,90,Apollo,1
Renata Vieira,F 45-49,F,D,Raw,75,,135,135,Arcanjos do Powerlifting,1
Rosangela Mendes Santos,F 50-54,F,D,Raw,75,,150,150,Beto Ninja,1
Ana Ceotto,FO ES,F,D,Raw,67.5,,95,95,Blitzkrieg,1
José Roberto Furtado,MJ ES,M,D,Raw,67.5,,120,120,Arcanjos do Powerlifting,1
Eduardo Arenas,MO ES,M,D,Raw,100,,260,260,,1
Serafim Rocha,M 65-69 ES,M,D,Raw,125,,,,Serafim Rocha,DQ
Bruno Cunha Dos Santos Teixeira,MT 13-15,M,D,Raw,60,,95,95,Apollo,1
Davi Micael de Oliveira,MT 16-17,M,D,Raw,75,,160,160,Beto Ninja,1
Mailson V. de Campos,MT 16-17,M,D,Raw,100,,190,190,Beto Ninja,1
João Santos de Araujo,MT 18-19,M,D,Raw,67.5,,167.5,167.5,Beto Ninja,1
Samuel R. de Matos,MT 18-19,M,D,Raw,82.5,,170,170,Beto Ninja,1
Vitor Michel Jacinto,MJ,M,D,Raw,67.5,,200,200,Beto Ninja,1
Gabriel Schineider da Silva,MJ,M,D,Raw,67.5,,145,145,Beto Ninja,2
David Nascimento,MJ,M,D,Raw,75,,200,200,Blitzkrieg,1
Luan da Silva Ribeiro,MJ,M,D,Raw,75,,145,145,Beto Ninja,2
Daniel Dakuzaku,MJ,M,D,Raw,82.5,,235,235,Blitzkrieg,1
Henrique Nunes de Sousa,MJ,M,D,Raw,90,,250,250,HNTeam,1
Manoel Ataíde Barbosa Junior,MJ,M,D,Raw,100,,205,205,Beto Ninja,1
Patrick Souza,MJ,M,D,Raw,100,,190,190,São Vicente,2
Thiago Sousa de Oliveira,MJ,M,D,Raw,110,,170,170,A5,1
Sinuhe Ceotto,MJ,M,D,Raw,125,,285,285,Blitzkrieg,1
Alex Isaias Laguna Mantazole,MO,M,D,Raw,56,,180,180,Monsters,1
Leandro Presta Silva,MO,M,D,Raw,60,,135,135,Apollo,1
Makson Pereira dos Santos,MO,M,D,Raw,75,,205,205,Reforce,1
Jaider Ramos,MO,M,D,Raw,75,,200,200,Monsters,2
Diego Luiz de Almeida Bento,MO,M,D,Raw,75,,180,180,Espaço Physico,3
Erismar Dias Dos Santos,MO,M,D,Raw,75,,175,175,Beto Ninja,4
Tiago Ferraz,MO,M,D,Raw,82.5,,222.5,222.5,Saude Ativa,1
Hilton M. Otaviamo,MO,M,D,Raw,82.5,,210,210,Monsters,2
José Augusto da Silva,MO,M,D,Raw,82.5,,210,210,Arcanjos do Powerlifting,3
Felipe de Freitas Fernandes,MO,M,D,Raw,82.5,,200,200,,4
Anderson Genuíno dos Reis,MO,M,D,Raw,82.5,,185,185,,6
Carlos Henrique Leme,MO,M,D,Raw,82.5,,170,170,Beto Ninja,7
Luiz Carlos Rufino da Silva,MO,M,D,Raw,82.5,,195,195,Apollo,5
Lucas Augusto Ferro e Silva,MO,M,D,Raw,90,,280,280,Blitzkrieg,1
Henrique Nunes de Sousa,MO,M,D,Raw,90,,250,250,HNTEAM,2
Marcos Antônio da Silva Souza,MO,M,D,Raw,90,,240,240,Apollo,3
Edmar de Souza,MO,M,D,Raw,90,,235,235,Monsters,4
Luis Eduardo Leme,MO,M,D,Raw,90,,200,200,Beto Ninja,5
Jose Basilio Lemes Neto,MO,M,D,Raw,90,,120,120,Seme,6
Miguel Chain Junior,MO,M,D,Raw,100,,240,240,,1
Mailon Ferreira Moraes,MO,M,D,Raw,100,,230,230,Super treino,2
Alex Soares Gomes,MO,M,D,Raw,100,,222.5,222.5,CLP Power,3
Tiago Santos Barreto,MO,M,D,Raw,100,,220,220,Apollo,4
Estevão Martins da Silva,MO,M,D,Raw,110,,320,320,Super treino,1
Jézer Gomes Gonçalves,MO,M,D,Raw,110,,220,220,Saúde Ativa,2
Marcelo Diego Detomazi,MO,M,D,Raw,110,,220,220,Monsters,3
David C. S. Piva,MO,M,D,Raw,125,,250,250,Beto Ninja,1
Everton Soares Garcia,MO,M,D,Raw,140,,310,310,Reforce,1
Fabricio de Assis Ubirajara,MO,M,D,Raw,140+,,280,280,Max Gym,1
Jaime Ferreira Reverte,M 40-44,M,D,Raw,82.5,,202.5,202.5,Apollo,1
Márcio Arcanjo de Barros,M 40-44,M,D,Raw,82.5,,185,185,,2
Williams Gomes da Silva,M 40-44,M,D,Raw,90,,185,185,Apollo,1
Reginaldo Aparecido Raimundo,M 40-44,M,D,Raw,100,,230,230,Monsters,1
Estefanio Climaco Dos Santos,M 40-44,M,D,Raw,110,,230,230,Apollo,1
Alberto Carlos Seabra Norce,M 45-49,M,D,Raw,90,,190,190,Beto Ninja,1
Marcelo Cesar de Oliveira,M 45-49,M,D,Raw,100,,215,215,A5,1
Marco Aurelio Gomes de Lima,M 45-49,M,D,Raw,110,,230,230,Apollo,1
Marcio Rogério de Lima,M 45-49,M,D,Raw,125,,305,305,Reforce,1
André Madeira,M 50-54,M,D,Raw,82.5,,170,170,Bracco,1
Valfrido da Silva,M 50-54,M,D,Raw,90,,107.5,107.5,Apollo,1
Paulo dos Santos Silva,M 50-54,M,D,Raw,100,,110,110,Apollo,1
Jose Angelito Duarte dos Santos,M 50-54,M,D,Raw,110,,180,180,Apollo,1
Luiz Carlos Duarte Silva,M 65-69,M,D,Raw,82.5,,132.5,132.5,Apollo,1
