Division,WeightClassKg,Place,Name,Team,BodyweightKg,Best3SquatKg,Best3BenchKg,Best3DeadliftKg,TotalKg,Equipment,Event,Sex,BirthDate
Boys,51.71,1,Michael Vargas,Beaumont West Brook,50.71,127.01,68.04,127.01,322.05,Single-ply,SBD,M,
Boys,51.71,2,Andrew King,Cleveland Tarkington,51.71,111.13,65.77,117.93,294.84,Single-ply,SBD,M,
Boys,51.71,3,Sebastian Chavez,Houston Clear Lake,50.8,70.31,40.82,90.72,201.85,Single-ply,SBD,M,
Boys,51.71,4,Efrain Chavez,Houston Clear Lake,50.71,65.77,,92.99,158.76,Single-ply,SD,M,
Boys,55.79,1,Jacob Cavness,Santa Fe,55.07,129.27,79.38,124.74,333.39,Single-ply,SBD,M,
Boys,55.79,2,Mateo Gallegos,Alvin,55.79,117.93,61.23,129.27,308.44,Single-ply,SBD,M,
Boys,55.79,3,Jamin Gutierrez,Alvin,55.79,106.59,65.77,124.74,297.1,Single-ply,SBD,M,
Boys,55.79,4,Riely Leonard,Pearland,55.52,79.38,65.77,136.08,281.23,Single-ply,SBD,M,
Boys,55.79,5,Kole Joiner,La Marque,53.52,106.59,56.7,95.25,258.55,Single-ply,SBD,M,
Boys,59.87,1,Jessy Yanez,Channelview,59.15,188.24,97.52,204.12,489.88,Single-ply,SBD,M,
Boys,59.87,2,Alec Ruiz,Pearland Dawson,59.24,174.63,90.72,181.44,446.79,Single-ply,SBD,M,
Boys,59.87,3,Jace Boehm,Splendora,58.51,124.74,61.23,83.91,269.89,Single-ply,SBD,M,
Boys,59.87,4,Bryant Wilkerson,Cleveland Tarkington,58.97,,,133.81,133.81,Single-ply,D,M,
Boys,59.87,DQ,Bailey Lepore,Texas City,59.87,,,,,Single-ply,SBD,M,
Boys,67.13,1,DeMarcus Coleman,Beaumont West Brook,67.13,208.65,104.33,174.63,487.61,Single-ply,SBD,M,
Boys,67.13,2,Russell Pickney,La Marque,66.68,172.37,97.52,208.65,478.54,Single-ply,SBD,M,
Boys,67.13,3,Efren Ramirez,Alvin,66.32,181.44,113.4,181.44,476.27,Single-ply,SBD,M,
Boys,67.13,4,Jeremiah Coleman,Dickinson,61.33,163.29,81.65,185.97,430.91,Single-ply,SBD,M,
Boys,67.13,5,Antonio Garcia,Splendora,65.86,158.76,92.99,158.76,410.5,Single-ply,SBD,M,
Boys,67.13,6,Pierre Bynum,Port Arthur Memorial,66.86,142.88,97.52,149.69,390.09,Single-ply,SBD,M,
Boys,67.13,7,Payton Orzechowski,Cleveland Tarkington,66.32,147.42,88.45,149.69,385.55,Single-ply,SBD,M,
Boys,67.13,8,Garrett Hlavaty,Cleveland Tarkington,60.78,149.69,92.99,133.81,376.48,Single-ply,SBD,M,
Boys,67.13,9,Caleb Crum,Pearland,63.68,142.88,70.31,149.69,362.87,Single-ply,SBD,M,
Boys,67.13,10,Juan Bravo,Alvin,66.41,136.08,72.57,151.95,360.61,Single-ply,SBD,M,
Boys,67.13,11,Brent Najera,Pearland,65.95,124.74,77.11,138.35,340.19,Single-ply,SBD,M,
Boys,67.13,12,Joseph Flores,Huffman Hargrave,65.5,147.42,,176.9,324.32,Single-ply,SD,M,
Boys,67.13,13,James Lightfoot,Channelview,60.33,113.4,81.65,117.93,312.98,Single-ply,SBD,M,
Boys,67.13,14,Matthew Wilburn,Santa Fe,60.42,120.2,70.31,120.2,310.71,Single-ply,SBD,M,
Boys,67.13,15,Zach Odom,Huffman Hargrave,67.13,136.08,,170.1,306.17,Single-ply,SD,M,
Boys,67.13,16,Micah Cooper,Conroe Grand Oaks,67.13,136.08,,142.88,278.96,Single-ply,SD,M,
Boys,67.13,17,Ruben Maldonado,Splendora,65.14,79.38,61.23,124.74,265.35,Single-ply,SBD,M,
Boys,67.13,DQ,Rakan Devito,Cleveland Tarkington,67.13,,,,,Single-ply,SBD,M,
Boys,74.84,1,Derrick Cobbs,Dickinson,73.03,197.31,111.13,231.33,539.77,Single-ply,SBD,M,
Boys,74.84,2,Robert Galindo,Dickinson,73.21,192.78,108.86,192.78,494.42,Single-ply,SBD,M,
Boys,74.84,3,Jacob Smith,Port Neches-Groves,74.84,174.63,136.08,170.1,480.81,Single-ply,SBD,M,
Boys,74.84,4,William Palmer,Dickinson,74.75,190.51,102.06,183.7,476.27,Single-ply,SBD,M,
Boys,74.84,5,Julian Wetzel,Huffman Hargrave,73.12,179.17,111.13,183.7,474,Single-ply,SBD,M,
Boys,74.84,6,Ricardo Alaniz,Alvin,73.48,174.63,92.99,201.85,469.47,Single-ply,SBD,M,
Boys,74.84,7,Andrew Hernandez,Splendora,73.75,154.22,111.13,188.24,453.59,Single-ply,SBD,M,
Boys,74.84,8,Zach Browning,Beaumont West Brook,72.94,165.56,115.67,165.56,446.79,Single-ply,SBD,M,
Boys,74.84,9,Evan Dickerson,Pearland Dawson,74.12,165.56,92.99,163.29,421.84,Single-ply,SBD,M,
Boys,74.84,10,Jeremy Kolakowski,Pearland Dawson,74.48,151.95,102.06,161.03,415.04,Single-ply,SBD,M,
Boys,74.84,11,Chade Lamaire,Texas City,70.22,154.22,95.25,142.88,392.36,Single-ply,SBD,M,
Boys,74.84,12,David Bush,Conroe Grand Oaks,74.3,127.01,102.06,147.42,376.48,Single-ply,SBD,M,
Boys,74.84,13,Andrew Murphy #4,Alvin,68.22,124.74,81.65,133.81,340.19,Single-ply,SBD,M,
Boys,74.84,14,Aj San Miguel,Huffman Hargrave,74.84,,136.08,192.78,328.85,Single-ply,BD,M,
Boys,74.84,15,Jairo Rivera,Pasadena Memorial,68.67,99.79,77.11,136.08,312.98,Single-ply,SBD,M,
Boys,74.84,16,Dyllan Cuellar,Conroe Grand Oaks,69.76,104.33,72.57,136.08,312.98,Single-ply,SBD,M,
Boys,74.84,17,Josh Farley,Pearland,74.12,,113.4,190.51,303.91,Single-ply,BD,M,
Boys,74.84,18,Nigel Nelson,La Marque,67.77,90.72,58.97,145.15,294.84,Single-ply,SBD,M,
Boys,74.84,19,Alan Ramirez,Beaumont West Brook,73.84,,68.04,142.88,210.92,Single-ply,BD,M,
Boys,82.1,1,Luis Sanchez,Dickinson,77.38,233.6,129.27,219.99,582.87,Single-ply,SBD,M,
Boys,82.1,2,David Aviles,Alvin,78.74,204.12,115.67,192.78,512.56,Single-ply,SBD,M,
Boys,82.1,3,Bradley Sanders,Cleveland Tarkington,76.57,192.78,111.13,179.17,483.08,Single-ply,SBD,M,
Boys,82.1,4,Malikai Bethea,Pasadena Memorial,78.74,158.76,102.06,204.12,464.93,Single-ply,SBD,M,
Boys,82.1,5,Jaden Washington,Houston Clear Lake,76.11,190.51,83.91,188.24,462.66,Single-ply,SBD,M,
Boys,82.1,6,Giovanni Jaso,Pasadena Memorial,79.38,181.44,95.25,185.97,462.66,Single-ply,SBD,M,
Boys,82.1,7,Desmond Prevost,Pearland Dawson,81.65,151.95,102.06,183.7,437.72,Single-ply,SBD,M,
Boys,82.1,8,Ethan Revils,La Porte,76.93,129.27,111.13,170.1,410.5,Single-ply,SBD,M,
Boys,82.1,9,Emory Velez,Conroe Grand Oaks,75.3,136.08,92.99,170.1,399.16,Single-ply,SBD,M,
Boys,82.1,10,Deryk Villarreal,Huffman Hargrave,81.01,190.51,,174.63,365.14,Single-ply,SD,M,
Boys,82.1,11,Jude Mascorro,La Porte,80.47,124.74,92.99,142.88,360.61,Single-ply,SBD,M,
Boys,82.1,12,Gage Mongesku,Conroe Grand Oaks,78.56,129.27,79.38,142.88,351.53,Single-ply,SBD,M,
Boys,82.1,13,Marco Martínez,Splendora,77.75,113.4,70.31,165.56,349.27,Single-ply,SBD,M,
Boys,82.1,14,Garrett Halbrooks,Huffman Hargrave,80.47,,138.35,185.97,324.32,Single-ply,BD,M,
Boys,82.1,15,Austin Carr,Pearland,80.74,158.76,,163.29,322.05,Single-ply,SD,M,
Boys,82.1,16,Parnell Lujan,Baytown Lee,79.47,92.99,74.84,142.88,310.71,Single-ply,SBD,M,
Boys,82.1,17,Ryan James,Baytown Lee,78.74,,111.13,192.78,303.91,Single-ply,BD,M,
Boys,89.81,1,Gage Slaughter,Santa Fe,89.18,215.46,124.74,192.78,532.97,Single-ply,SBD,M,
Boys,89.81,2,Johnathan Lopez,La Porte,85.82,185.97,124.74,188.24,498.95,Single-ply,SBD,M,
Boys,89.81,3,Donovan Hill,Dickinson,88.81,195.04,111.13,188.24,494.42,Single-ply,SBD,M,
Boys,89.81,4,Hayden Barron,Alvin,84.37,190.51,111.13,170.1,471.74,Single-ply,SBD,M,
Boys,89.81,5,Christian Middleton,La Marque,86.82,147.42,102.06,204.12,453.59,Single-ply,SBD,M,
Boys,89.81,6,Donovan Latin,Port Neches-Groves,88.36,147.42,117.93,176.9,442.25,Single-ply,SBD,M,
Boys,89.81,7,Jc Alrousan,Pasadena Memorial,87.82,142.88,104.33,183.7,430.91,Single-ply,SBD,M,
Boys,89.81,8,John Sneed,Texas City,87.91,147.42,102.06,154.22,403.7,Single-ply,SBD,M,
Boys,89.81,9,Jordan Enriquez,Alvin,87.91,188.24,,179.17,367.41,Single-ply,SD,M,
Boys,89.81,10,Zavion Davis,Houston Clear Lake,88.81,142.88,,170.1,312.98,Single-ply,SD,M,
Boys,89.81,11,Ben Palacios,Pasadena Memorial,86.64,,102.06,172.37,274.42,Single-ply,BD,M,
Boys,89.81,12,Wyatt Thibodeaux,Houston Clear Lake,82.28,,106.59,120.2,226.8,Single-ply,BD,M,
Boys,99.79,1,Jose Rodriguez,Dickinson,99.43,267.62,163.29,215.46,646.37,Single-ply,SBD,M,
Boys,99.79,2,David Hernandez,La Porte,98.34,215.46,133.81,206.38,555.65,Single-ply,SBD,M,
Boys,99.79,3,John Rinehart,Texas City,91.17,219.99,124.74,204.12,548.85,Single-ply,SBD,M,
Boys,99.79,4,Bradon Niaves,Pearland,97.89,188.24,133.81,174.63,496.68,Single-ply,SBD,M,
Boys,99.79,5,Nathan Cabrera,Pasadena Memorial,94.35,217.72,95.25,181.44,494.42,Single-ply,SBD,M,
Boys,99.79,6,Ruben Zumaya,Splendora,96.89,199.58,83.91,204.12,487.61,Single-ply,SBD,M,
Boys,99.79,7,Donaciano Gutierrez,La Porte,90.81,183.7,111.13,188.24,483.08,Single-ply,SBD,M,
Boys,99.79,8,Adrian Tamez,Pasadena Memorial,92.8,176.9,108.86,192.78,478.54,Single-ply,SBD,M,
Boys,99.79,9,Braeden Carr,Pearland,97.79,179.17,117.93,172.37,469.47,Single-ply,SBD,M,
Boys,99.79,10,Ayden Khalil,Pearland Dawson,99.52,138.35,102.06,176.9,417.3,Single-ply,SBD,M,
Boys,99.79,11,Joey Gibbs,Santa Fe,92.44,151.95,95.25,161.03,408.23,Single-ply,SBD,M,
Boys,99.79,12,Logan Alpha,Splendora,94.44,156.49,90.72,136.08,383.29,Single-ply,SBD,M,
Boys,99.79,13,Jaime Sanchez,Houston Clear Lake,96.07,190.51,,185.97,376.48,Single-ply,SD,M,
Boys,99.79,14,Bryan Medina,Baytown Lee,91.17,124.74,102.06,142.88,369.68,Single-ply,SBD,M,
Boys,99.79,15,Canton Kempf,Santa Fe,92.62,151.95,68.04,147.42,367.41,Single-ply,SBD,M,
Boys,99.79,16,David Moore,Port Arthur Memorial,96.25,170.1,,188.24,358.34,Single-ply,SD,M,
Boys,99.79,17,Desmond Jackson,Beaumont West Brook,92.44,170.1,,165.56,335.66,Single-ply,SD,M,
Boys,99.79,18,Bobby Bolin,Santa Fe,99.06,,,188.24,188.24,Single-ply,D,M,
Boys,109.77,1,Michael Bush,Channelview,102.78,213.19,142.88,238.14,594.21,Single-ply,SBD,M,
Boys,109.77,2,Jordan Thomas,Port Arthur Memorial,108.5,215.46,142.88,233.6,591.94,Single-ply,SBD,M,
Boys,109.77,3,Donovan Jackson,Port Arthur Memorial,104.69,215.46,124.74,217.72,557.92,Single-ply,SBD,M,
Boys,109.77,4,Christopher Fernandez,Santa Fe,101.7,210.92,102.06,210.92,523.9,Single-ply,SBD,M,
Boys,109.77,5,Brandon Haltom,Cleveland Tarkington,101.7,192.78,124.74,201.85,519.36,Single-ply,SBD,M,
Boys,109.77,6,Julian Barajas,Alvin,103.6,149.69,108.86,229.06,487.61,Single-ply,SBD,M,
Boys,109.77,7,Dale Koudelik,Pearland Dawson,108.77,183.7,120.2,183.7,487.61,Single-ply,SBD,M,
Boys,109.77,8,Christian Sauter,Pearland,109.23,179.17,124.74,183.7,487.61,Single-ply,SBD,M,
Boys,109.77,9,Collin Rhodes,Splendora,104.42,181.44,120.2,163.29,464.93,Single-ply,SBD,M,
Boys,109.77,10,Ryan Mouton,Beaumont West Brook,104.6,183.7,124.74,147.42,455.86,Single-ply,SBD,M,
Boys,109.77,11,Jude Gonzalez,Pearland,100.24,192.78,106.59,154.22,453.59,Single-ply,SBD,M,
Boys,109.77,12,Robert Zukowski,Port Neches-Groves,100.52,183.7,111.13,158.76,453.59,Single-ply,SBD,M,
Boys,109.77,13,Payton Korolyk,Conroe Grand Oaks,106.87,215.46,,219.99,435.45,Single-ply,SD,M,
Boys,109.77,14,JoVante Dozier,La Marque,106.32,172.37,104.33,142.88,419.57,Single-ply,SBD,M,
Boys,109.77,15,Leonardo Hernandez,Beaumont West Brook,106.32,154.22,97.52,156.49,408.23,Single-ply,SBD,M,
Boys,109.77,16,Erick Morua,Pearland Dawson,106.68,111.13,95.25,165.56,371.95,Single-ply,SBD,M,
Boys,109.77,17,Eagan Oliver,Santa Fe,107.77,183.7,,156.49,340.19,Single-ply,SD,M,
Boys,124.74,1,Aaron Mata,Alvin,114.58,233.6,124.74,226.8,585.13,Single-ply,SBD,M,
Boys,124.74,2,Abner Mancillas,Channelview,115.94,204.12,151.95,219.99,576.06,Single-ply,SBD,M,
Boys,124.74,3,Peyton McCormick,Cleveland Tarkington,118.57,199.58,145.15,208.65,553.38,Single-ply,SBD,M,
Boys,124.74,4,Julian Allen,Texas City,124.74,206.38,138.35,199.58,544.31,Single-ply,SBD,M,
Boys,124.74,5,David Trevino,Alvin,124.01,195.04,131.54,215.46,542.04,Single-ply,SBD,M,
Boys,124.74,6,Anthony Richard,La Marque,119.39,238.14,102.06,199.58,539.77,Single-ply,SBD,M,
Boys,124.74,7,Sam Anderson,Pearland Dawson,123.92,210.92,120.2,206.38,537.51,Single-ply,SBD,M,
Boys,124.74,8,Alex O'Dell,Cleveland Tarkington,124.1,204.12,142.88,188.24,535.24,Single-ply,SBD,M,
Boys,124.74,9,Trent Mikes,Santa Fe,121.56,204.12,124.74,199.58,528.44,Single-ply,SBD,M,
Boys,124.74,10,Austin Couhig,Cleveland Tarkington,116.66,192.78,115.67,206.38,514.83,Single-ply,SBD,M,
Boys,124.74,11,Nicholas Fuentes,Texas City,111.95,195.04,122.47,183.7,501.22,Single-ply,SBD,M,
Boys,124.74,12,Albert Hernandez,La Porte,114.94,183.7,124.74,183.7,492.15,Single-ply,SBD,M,
Boys,124.74,13,Kimble Jones,Beaumont West Brook,118.84,204.12,113.4,163.29,480.81,Single-ply,SBD,M,
Boys,124.74,14,Billy Haynes,Baytown Lee,124.47,183.7,117.93,174.63,476.27,Single-ply,SBD,M,
Boys,124.74,15,Austin Corpus,La Porte,114.94,183.7,106.59,183.7,474,Single-ply,SBD,M,
Boys,124.74,16,Cage Shultz,Santa Fe,117.75,197.31,106.59,158.76,462.66,Single-ply,SBD,M,
Boys,124.74,17,Charles Ray,Texas City,112.67,190.51,111.13,158.76,460.4,Single-ply,SBD,M,
Boys,124.74,18,Rashad Futch,Baytown Lee,115.76,161.03,111.13,179.17,451.32,Single-ply,SBD,M,
Boys,124.74,19,Fred Jones,Beaumont West Brook,119.66,158.76,113.4,147.42,419.57,Single-ply,SBD,M,
Boys,124.74,20,Jonathon Lopez,Pearland Dawson,118.48,149.69,95.25,172.37,417.3,Single-ply,SBD,M,
Boys,124.74,21,Lazerio Thompson,Pearland Dawson,112.94,167.83,92.99,154.22,415.04,Single-ply,SBD,M,
Boys,124.74,22,Herman Romero,Pearland Dawson,115.67,163.29,90.72,149.69,403.7,Single-ply,SBD,M,
Boys,124.74,23,Kane Santos,Alvin,124.47,167.83,83.91,151.95,403.7,Single-ply,SBD,M,
Boys,124.74,24,Trellis Richardson,Pearland,111.04,201.85,,183.7,385.55,Single-ply,SD,M,
Boys,124.74,25,Billy McGilberry,Santa Fe,117.03,117.93,68.04,136.08,322.05,Single-ply,SBD,M,
Boys,124.74,26,Patrick Mulka,Splendora,111.13,120.2,68.04,129.27,317.51,Single-ply,SBD,M,
Boys,124.74+,1,Marcus White,Dickinson,134.94,281.23,149.69,235.87,666.78,Single-ply,SBD,M,
Boys,124.74+,2,Gus Davis,Huffman Hargrave,125.74,240.4,145.15,238.14,623.69,Single-ply,SBD,M,
Boys,124.74+,3,Markale White,Dickinson,134.35,235.87,149.69,235.87,621.42,Single-ply,SBD,M,
Boys,124.74+,4,Noah Barajas,Alvin,140.52,233.6,138.35,226.8,598.74,Single-ply,SBD,M,
Boys,124.74+,5,Armando Alaniz Jr,Dickinson,128.64,233.6,151.95,206.38,591.94,Single-ply,SBD,M,2000-12-31
Boys,124.74+,6,Joel Otero,Dickinson,126.37,219.99,129.27,206.38,555.65,Single-ply,SBD,M,
Boys,124.74+,7,Nathanial Davila,La Porte,130.73,219.99,129.27,192.78,542.04,Single-ply,SBD,M,
Boys,124.74+,8,Corey Mojica,Beaumont West Brook,131.63,226.8,145.15,161.03,532.97,Single-ply,SBD,M,
Boys,124.74+,9,Eric Sneed,Texas City,139.89,210.92,124.74,183.7,519.36,Single-ply,SBD,M,
Boys,124.74+,10,Dale Martin,Splendora,148.14,204.12,117.93,181.44,503.49,Single-ply,SBD,M,
Boys,124.74+,11,Sterling Mack,La Marque,125.19,204.12,124.74,170.1,498.95,Single-ply,SBD,M,
Boys,124.74+,12,Alex Leiato,Houston Clear Lake,126.92,179.17,120.2,161.03,460.4,Single-ply,SBD,M,
Boys,124.74+,13,Alfredo Nieto,Baytown Lee,141.97,174.63,102.06,181.44,458.13,Single-ply,SBD,M,
Boys,124.74+,14,Dylan Casey,La Porte,147.05,170.1,102.06,170.1,442.25,Single-ply,SBD,M,
Boys,124.74+,15,Omar Nieto,Baytown Lee,130.82,151.95,92.99,172.37,417.3,Single-ply,SBD,M,
Boys,124.74+,16,Jacobe Evans,La Marque,129.18,147.42,72.57,124.74,344.73,Single-ply,SBD,M,
