Division,WeightClassKg,Place,Name,Team,BodyweightKg,Best3SquatKg,Best3BenchKg,Best3DeadliftKg,TotalKg,Equipment,Event,Sex
Boys,51.71,1,Miguel Hernandez,Emory Rains,50.44,165.56,83.91,154.22,403.7,Single-ply,SBD,M
Boys,51.71,2,Justin Dowdy,Wills Point,50.89,145.15,95.25,158.76,399.16,Single-ply,SBD,M
Boys,51.71,3,Dylan King,Kaufman,51.07,108.86,56.7,113.4,278.96,Single-ply,SBD,M
Boys,51.71,4,Carson Adcock,Crandall,48.99,72.57,40.82,77.11,190.51,Single-ply,SBD,M
Boys,59.87,1,Isaiah Payne,Crandall,55.88,136.08,68.04,172.37,376.48,Single-ply,SBD,M
Boys,59.87,2,Cesar Colunga,Emory Rains,55.97,133.81,61.23,142.88,337.93,Single-ply,SBD,M
Boys,55.79,3,Jose Olvera,Kaufman,54.43,120.2,68.04,131.54,319.78,Single-ply,SBD,M
Boys,59.87,4,Johnathan Grasse,Quinlan Ford,55.88,65.77,49.9,90.72,206.38,Single-ply,SBD,M
Boys,59.87,1,Tyler Watson,Crandall,59.15,156.49,90.72,176.9,424.11,Single-ply,SBD,M
Boys,59.87,2,Theo Serrano,Quinlan Ford,59.06,117.93,70.31,154.22,342.46,Single-ply,SBD,M
Boys,59.87,3,Woody Strain,Kaufman,59.24,127.01,72.57,124.74,324.32,Single-ply,SBD,M
Boys,67.13,1,Taylor Gonzalez,Crandall,66.86,154.22,117.93,167.83,439.98,Single-ply,SBD,M
Boys,67.13,2,Clayton Harris,Emory Rains,63.78,142.88,88.45,129.27,360.61,Single-ply,SBD,M
Boys,67.13,3,Dylan Simmons,Emory Rains,61.23,136.08,79.38,117.93,333.39,Single-ply,SBD,M
Boys,74.84,1,Christian Darter,Emory Rains,74.57,197.31,138.35,210.92,546.58,Single-ply,SBD,M
Boys,74.84,2,LaXavier Battee,Kaufman,74.21,199.58,113.4,206.38,519.36,Single-ply,SBD,M
Boys,74.84,3,Nate Jacobs,Crandall,72.57,163.29,120.2,204.12,487.61,Single-ply,SBD,M
Boys,74.84,4,Charles Willman,Quinlan Ford,73.84,161.03,129.27,147.42,437.72,Single-ply,SBD,M
Boys,74.84,5,Calvin Olsen,Quinlan Ford,69.49,154.22,90.72,154.22,399.16,Single-ply,SBD,M
Boys,74.84,6,Casey Cranford,Wills Point,68.13,142.88,97.52,147.42,387.82,Single-ply,SBD,M
Boys,74.84,7,Joseph Paddock,Wills Point,74.21,124.74,104.33,140.61,369.68,Single-ply,SBD,M
Boys,82.1,1,Jacob Holley,Kaufman,80.65,190.51,120.2,174.63,485.34,Single-ply,SBD,M
Boys,82.1,2,Brett Mallon,Crandall,80.65,176.9,106.59,188.24,471.74,Single-ply,SBD,M
Boys,82.1,3,Justin Blagburn,Emory Rains,80.1,172.37,108.86,185.97,467.2,Single-ply,SBD,M
Boys,82.1,4,Galand Parker,Quinlan Ford,82.01,181.44,99.79,147.42,428.64,Single-ply,SBD,M
Boys,82.1,5,Tyler Farriell,Wills Point,81.74,158.76,106.59,149.69,415.04,Single-ply,SBD,M
Boys,82.1,DQ,James Wright #1,Wills Point,77.38,,,,,Single-ply,SBD,M
Boys,89.81,1,Gannon Brown,Emory Rains,86.27,226.8,133.81,256.28,616.89,Single-ply,SBD,M
Boys,89.81,2,Jonathan Dunson,Kaufman,87.18,226.8,129.27,195.04,551.11,Single-ply,SBD,M
Boys,89.81,3,Nate Banks,Crandall,88,201.85,120.2,208.65,530.7,Single-ply,SBD,M
Boys,89.81,4,Brandon Melton,Quinlan Ford,84.82,208.65,108.86,149.69,467.2,Single-ply,SBD,M
Boys,89.81,5,Billy Pritchett,Quinlan Ford,89.63,136.08,65.77,181.44,383.29,Single-ply,SBD,M
Boys,89.81,DQ,Justin Zackery,Emory Rains,84.19,,,,,Single-ply,SBD,M
Boys,99.79,1,Xavier Robertson,Kaufman,92.44,199.58,136.08,219.99,555.65,Single-ply,SBD,M
Boys,99.79,2,Elier Avila,Kaufman,97.98,226.8,120.2,208.65,555.65,Single-ply,SBD,M
Boys,99.79,3,Alex Zepeda,Crandall,97.25,226.8,120.2,206.38,553.38,Single-ply,SBD,M
Boys,99.79,4,Tyler Hobbs,Quinlan Ford,96.07,204.12,108.86,192.78,505.76,Single-ply,SBD,M
Boys,99.79,5,Daniel Sánchez,Quinlan Ford,95.98,136.08,70.31,149.69,356.07,Single-ply,SBD,M
Boys,109.77,1,Justin Jackson,Crandall,101.42,219.99,122.47,238.14,580.6,Single-ply,SBD,M
Boys,109.77,2,Taner Renfro,Quinlan Ford,101.24,249.48,131.54,192.78,573.79,Single-ply,SBD,M
Boys,109.77,3,Kevin Morrow,Kaufman,100.61,222.26,124.74,210.92,557.92,Single-ply,SBD,M
Boys,124.74,1,David Allen,Quinlan Ford,122.38,226.8,138.35,235.87,601.01,Single-ply,SBD,M
Boys,124.74,2,Nicholas Rodriguez,Kaufman,116.66,210.92,131.54,229.06,571.53,Single-ply,SBD,M
Boys,124.74,3,Daniel Brown #5,Crandall,121.02,206.38,142.88,222.26,571.53,Single-ply,SBD,M
Boys,124.74+,1,Jacob Reichenau,Crandall,136.62,238.14,136.08,231.33,605.55,Single-ply,SBD,M
Boys,124.74+,2,Edgar SanJuan,Kaufman,134.35,219.99,122.47,174.63,517.1,Single-ply,SBD,M
