EUROPEAN POWERLIFTING FEDERATION,,,,,,,,,,,,,,,,,,,,
European Masters Women's Classic Championships. Gyor (Hungary). 05-10.03.2019,,,,,,,,,,,,,,,,,,,,
DETAILED SCORESHEET,,,,,,,,,,,,,,,,,,,,
Rnk,Name,d.o.b.,Team,Bwt,Lot,All Squat,,,,All Bench Press,,,,All Deadlift,,,,Total,IPF Pts,Pts
Masters 1,,,,,,,,,,,,,,,,,,,,
-52kg,,,,,,,,,,,,,,,,,,,,
1,Bertoli Maruska,1979,ITA,51.8,7,120,127.5,135,1,72.5,77.5,80,1,150,160,165,1,380,730.61,12
2,Rebello Christine,1972,NED,51.8,2,107.5,115,120,2,62.5,67.5,-70,5,140,150,-155,2,337.5,644.67,9
3,Sharmel Catherine,1977,GBR,51.3,9,110,115,-117.5,3,65,67.5,-70,4,135,140,147.5,3,330,632.85,8
4,Marjusaari Tiina,1977,FIN,51.9,8,102.5,107.5,110,4,70,72.5,-75,3,135,145,-150,4,327.5,623.79,7
5,Bouvard Marianne,1976,FRA,50.3,1,102.5,107.5,-112.5,5,70,-72.5,72.5,2,115,125,-130,5,305,588.19,6
6,McKernan Karen,1977,IRL,51.9,3,102.5,-107.5,-107.5,6,57.5,62.5,-65,6,110,115,-120,6,280,527.87,5
7,Tarnowska Anna,1978,POL,52,4,95,-100,-100,7,37.5,-40,,8,115,-122.5,-122.5,7,247.5,461.8,4
8,Cottret Berangere,1975,FRA,51.1,5,85,90,-95,8,-40,42.5,-45,7,105,-115,-115,8,237.5,445.37,3
-57kg,,,,,,,,,,,,,,,,,,,,
1,Hughes Helen,1976,GBR,56.1,14,112.5,120,125,1,80,-85,-85,2,132.5,140,-145,5,345,632.29,12
2,Dahle Julie,1978,NOR,57,16,115,120,-125,3,80,85,87.5,1,120,125,130,7,337.5,612.92,9
3,Monaco Roberta,1975,ITA,53.9,11,100,107.5,112.5,5,62.5,65,67.5,3,130,142.5,150,1,330,616.22,8
4,Korhonen Tanja,1978,FIN,56.1,15,110,115,-120,4,67.5,-72.5,-72.5,4,120,130,142.5,3,325,593.98,7
5,Flynn Sarah,1973,IRL,55.6,10,112.5,117.5,120,2,52.5,55,-57.5,7,135,142.5,-145,2,317.5,582.24,6
6,Evors Courtney,1979,GER,56,13,105,110,-112.5,6,55,57.5,60,6,130,135,-137.5,6,305,556.16,5
DQ,Descours Veronique,1971,FRA,56.3,12,-105,-105,-105,DQ,65,-70,-70,5,130,142.5,-147.5,4,DSQ,DQ,DQ
-63kg,,,,,,,,,,,,,,,,,,,,
1,Haddon Colette,1974,NED,62.4,17,135,140,142.5,3,75,77.5,-80,3,162.5,172.5,175,1,395,689.23,12
2,Rasmussen Monica,1972,NOR,62.2,18,155,160.5-c1,-162.5,1,70,75,-77.5,6,150,155,-162.5,5,390.5,682.26,9
3,De la Calle Raquel,1977,ESP,62.9,21,145,-150,150,2,72.5,75,77.5,4,147.5,155,-157.5,6,382.5,664.26,8
4,Backman Katri,1977,FIN,62.1,22,130,135,-140,5,77.5,82.5,-85,1,155,160,-165,2,377.5,659.47,7
5,Falck Daniela,1975,GER,62.8,19,-117.5,120,125,6,67.5,72.5,-75,7,147.5,155,157.5,4,355,615.76,6
6,Holmes Sharon,1972,GBR,61.8,20,130,135,137.5,4,70,72.5,75,5,135,140,-145,7,352.5,616.03,5
7,Kiss Anett,1976,HUN,61.6,23,122.5,-130,-130,7,62.5,67.5,70,9,150,-157.5,157.5,3,350,612.49,4
8,Rodgers Beverley,1972,GBR,62.7,25,117.5,-125,-125,8,77.5,82.5,-87.5,2,-125,-125,125,9,325,562.7,3
9,Possehl Zaneta,1977,GER,60.3,24,105,110,112.5,9,60,67.5,70,8,120,130,132.5,8,315,554.89,2
-72kg,,,,,,,,,,,,,,,,,,,,
1,Majomi Eno,1974,GBR,71,9,162.5,172.5-c1,175.0-c1,1,87.5,95,100,1,175,190,-198,1,465.0 -c1,764.49,12
2,Savage Niamh,1978,IRL,70.9,5,130,135,140,4,60,65,-67.5,4,160,172.5,177.5,3,382.5,628.15,9
3,Chatlinska Izabela,1978,POL,71.7,7,-140,140,150,3,60,65,-67.5,5,150,160,167.5,4,382.5,625.02,8
4,Joutsela Sanna,1973,FIN,70,1,120,130,-135,6,82.5,-87.5,87.5,2,145,157.5,-165,5,375,619.23,7
5,Reierskog Lise,1977,NOR,71.5,3,125,132.5,-140,5,80,85,87.5,3,145,155,-165,6,375,613.41,6
6,Fiserova Vera,1973,CZE,70.9,8,95,-105,-112.5,7,45,50,-55,8,125,130,135,7,280,458.13,5
7,Durdevic Milena,1978,CRO,66.6,4,80,90,92.5,8,45,47.5,50,7,115,125,130,8,272.5,457.15,4
8,Jungwirth Carola,1979,GER,63.6,2,90,-95,-95,9,-57.5,57.5,-60,6,110,117.5,-122.5,9,265,452.88,3
DQ,Laine Saara,1979,FIN,70.5,6,140,145,150,2,-72.5,-72.5,-72.5,DQ,175,-182.5,182.5,2,DSQ,DQ,DQ
-84kg,,,,,,,,,,,,,,,,,,,,
1,Tvedt Karen,1977,NOR,82.3,10,175,185,192.5,1,90,-95,-95,4,165,-175,-175,7,447.5,688.89,12
2,Sherwood Jenni,1973,GBR,82.2,14,140,150,-152.5,5,70,75,80,5,175,182.5,185,1,415,639.54,9
3,Dretvik Hilde,1974,NOR,83.6,19,135,140,145,6,90,-92.5,92.5,1,165,172.5,177.5,3,415,635.11,8
4,Valkonen Pia,1973,FIN,82.1,16,135,145,150,4,85,90,-92.5,3,155,165,-175,6,405,624.56,7
5,Ohrnell Mia,1972,SWE,79.7,17,150,157.5,-160,2,82.5,87.5,90,2,145,152.5,-155,8,400,624.55,6
6,McKenna Lorraine,1973,IRL,82.4,11,145,152.5,155,3,55,57.5,60,8,160,167.5,172.5,4,387.5,596.9,5
7,Vedestig Linda,1978,SWE,81.9,18,135,140,142.5,7,70,72.5,-75,6,152.5,160,165,5,380,586.89,4
8,Craig Nicole,1976,IRL,82.4,15,100,110,117.5,8,62.5,65,67.5,7,160,170,177.5,2,362.5,558.72,3
9,Szoverfi Julia,1978,HUN,82.7,13,100,110,115,9,60,-65,-65,9,130,140,147.5,9,322.5,496.94,2
84+kg,,,,,,,,,,,,,,,,,,,,
1,Lombosi Melinda,1978,HUN,137,21,175,185,192.5-c1,1,135,-140,-140,1,175,192.5,-203,2,520.0 -w1,659.37,12
2,Whiteley Joanne,1970,GBR,126.1,20,175,185,190.5-c1,2,92.5,97.5,-100,2,175,185,190,3,478,625.61,9
3,O'Callaghan Tracy,1978,GBR,97.6,27,177.5,-185,-190,3,82.5,87.5,90,3,185,195,-203,1,462.5,664.41,8
4,Claassen Barbara,1971,NED,98.5,28,165,175,-180,4,80,85,-90,5,170,177.5,185,4,445,637.65,7
5,Manninen Susanne,1977,FIN,97.9,24,125,135,142.5,5,65,70,72.5,7,150,165,175,6,390,562.13,6
6,Grimstad Nordstrand Kristina,1978,NOR,85.9,25,120,130,135,7,75,80,85,4,140,150,155,8,375,568.36,5
7,Kiely Emma,1974,IRL,88.2,29,120,127.5,-132.5,9,67.5,70,-72.5,8,160,170,177.5,5,375,562.57,4
8,Boglarka Horvath,1977,HUN,121.9,22,-130,130,135,8,62.5,67.5,70,9,155,170,-180,7,375,502.46,3
9,Lorentzen Birgitte,1975,NOR,110.8,26,120,130,142.5,6,77.5,85,-90,6,130,145,-155,9,372.5,515.04,2
,,,,,,,,,,,,,,,,,,,,
Nation (points),,,,,,,,,,,,,,,,,,,,
1,Great Britain,50,[12+12+9+9+8] 3326.34 IPF Pts,,,,,,,,,,,,,,,,,
2,Norway,44,[12+9+9+8+6] 3232.58 IPF Pts,,,,,,,,,,,,,,,,,
3,Finland,35,[7+7+7+7+7] 3121.03 IPF Pts,,,,,,,,,,,,,,,,,
4,Ireland,29,[9+6+5+5+4] 2897.72 IPF Pts,,,,,,,,,,,,,,,,,
5,Netherlands,28,[12+9+7] 1971.55 IPF Pts,,,,,,,,,,,,,,,,,
6,Hungary,21,[12+4+3+2] 2271.26 IPF Pts,,,,,,,,,,,,,,,,,
7,Italy,20,[12+8] 1346.82 IPF Pts,,,,,,,,,,,,,,,,,
8,Germany,16,[6+5+3+2] 2179.69 IPF Pts,,,,,,,,,,,,,,,,,
9,Poland,12,[8+4] 1086.82 IPF Pts,,,,,,,,,,,,,,,,,
10,Sweden,10,[6+4] 1211.43 IPF Pts,,,,,,,,,,,,,,,,,
11,France,9,[6+3] 1033.56 IPF Pts,,,,,,,,,,,,,,,,,
12,Spain,8,[8] 664.26 IPF Pts,,,,,,,,,,,,,,,,,
13,Czechia,5,[5] 458.13 IPF Pts,,,,,,,,,,,,,,,,,
14,Croatia,4,[4] 457.15 IPF Pts,,,,,,,,,,,,,,,,,
,,,,,,,,,,,,,,,,,,,,
Best Lifters of Masters 1 by IPF Points System,,,,,,,,,,,,,,,,,,,,
Rnk,Lifter,Nation,,Bwt,,Total,,IPF Points,,C.Rnk,,,,,,,,,,
1,Majomi Eno,Great Britain,,71,,465,,764.4858,,1,,,,,,,,,,
2,Bertoli Maruska,Italy,,51.8,,380,,730.6071,,1,,,,,,,,,,
3,Haddon Colette,Netherlands,,62.4,,395,,689.2304,,1,,,,,,,,,,
,,,,,,,,,,,,,,,,,,,,
Masters 2,,,,,,,,,,,,,,,,,,,,
-47kg,,,,,,,,,,,,,,,,,,,,
1,Feraud Nathalie,1967,FRA,46.5,3,95,-100,-100,3,65,70,-72.5,1,120,127.5,-135,1,292.5,587.58,12
2,Borgatti Elena,1969,ITA,45.7,4,102.5-c2,108.0-w2,-110.5,1,-55,55,57.5,2,125,-132.5,-132.5,2,290.5,589.13,9
3,Stamp June,1969,GBR,45.9,2,92.5,97.5,100,2,-45,45,47.5,3,102.5,107.5,112.5,3,260,520.26,8
4,Sternfeld Ana,1968,ESP,46.1,1,87.5,-92.5,-92.5,4,45,47.5,-50,4,100,107.5,-127.5,4,242.5,480.47,7
-52kg,,,,,,,,,,,,,,,,,,,,
1,Petroczki Magdolna,1968,HUN,51.5,7,90,-100,100,1,65,70,-72.5,1,125,135,142.5,1,312.5,595.97,12
2,Henriksen Bubandt Hege,1961,NOR,51.5,6,90,-95,-95,2,47.5,-50,-50,3,130,137.5,-140,2,275,519.83,9
3,Box Lorraine,1966,GBR,51.4,5,77.5,82.5,-85,3,40,45,47.5,2,110,-117.5,117.5,3,247.5,464.44,8
-57kg,,,,,,,,,,,,,,,,,,,,
1,Mlejnkova Petra,1967,CZE,55.4,11,107.5,112.5,115,2,65,70,-72.5,1,127.5,135,140,2,325,597.8,12
2,Jokitalo-Luomakoski Leena,1961,FIN,55.4,8,-105,105,115,1,57.5,-60,60,2,135,145,-152.5,1,320,588.14,9
3,Rudin Sofia,1968,SWE,56.6,10,105,112.5,-118,3,50,-55,-55,3,127.5,-135,-137.5,3,290,524.66,8
4,Gebala Grazyna,1966,POL,56.8,9,-85,85,90,4,42.5,45,-47.5,4,100,105,-112.5,4,240,428.77,7
-63kg,,,,,,,,,,,,,,,,,,,,
1,Barry Karen,1966,IRL,62.5,13,127.5,132.5,135,1,67.5,72.5,-75,1,132.5,142.5,-147.5,2,350,608.23,12
2,Banks Lynda,1965,GBR,62,17,107.5,112.5,115,2,60,65,-67.5,3,137.5,145,-147.5,1,325,565.66,9
3,Stockwell Diane,1967,GBR,61.7,14,105,-110,110,3,65,-70,-70,2,125,132.5,137.5,3,312.5,544.43,8
4,Romain Livy Laure,1967,FRA,62,16,-110,-110,110,4,52.5,55,-57.5,5,-130,130,-140,4,295,511.76,7
5,Salminen Margetta,1961,FIN,62.2,12,87.5,92.5,97.5,6,-62.5,62.5,65,4,117.5,122.5,-127.5,6,285,493.08,6
6,Birath Helena,1963,SWE,62.1,15,-100,100,105,5,45,50,-52.5,6,125,-132.5,-132.5,5,280,484.46,5
-72kg,,,,,,,,,,,,,,,,,,,,
1,Mineo Joy,1967,GBR,67.1,18,112.5,117.5,120,2,70,75,77.5,2,155,165,-172.5,1,362.5,609.88,12
2,Laszlone Farkas,1967,HUN,69.9,20,115,122.5,-130,1,77.5,-82.5,82.5,1,140,-150,,3,345,569.46,9
3,Sundling Stina,1964,SWE,71.6,21,90,-97.5,100,3,52.5,57.5,60,4,115,122.5,127.5,4,287.5,468.71,8
DQ,Twomey Helen,1967,IRL,71.4,19,-117.5,-120,-120,DQ,65,67.5,-70,3,145,152.5,-155,2,DSQ,DQ,DQ
-84kg,,,,,,,,,,,,,,,,,,,,
1,Blikra Inger,1961,NOR,82.4,27,120,135.5-c2,-148,2,95.0-c2,105.0-w2,-110.5,1,160,170,178.0-w2,1,418.5,644.24,12
2,Blasbery Jacqueline,1963,GBR,83.9,23,110,120,-125,5,75,80,85,2,152.5,162.5,165,2,370,566.1,9
3,Stavheim Gro-Berit,1964,NOR,80.8,24,122.5,127.5,132.5,3,75,80,-82.5,3,147.5,155,-160,4,367.5,570.84,8
4,Wicks Louise,1968,GBR,83.3,25,120,-125,125,4,62.5,65,67.5,4,150,-160,160,3,352.5,541.14,7
5,Kiviranta Tiina,1966,FIN,83.4,26,120,127.5,136,1,65,-70,-70,5,135,145,-155,5,346,531.02,6
84+kg,,,,,,,,,,,,,,,,,,,,
1,Gray Betty,1962,GBR,103.9,28,130,140,-147.5,3,70,72.5,75,3,185,198.0-c2,-205,1,413,581.56,12
2,Ebbeke Marie,1967,SWE,100.1,29,147.5,155,-165.5,1,-65,65,67.5,4,155,162.5,-165,3,385,550.69,9
3,Brathen Rita Pernille,1968,NOR,94.9,31,125,132.5,-135,4,67.5,72.5,75,2,160,170,-175,2,377.5,550.85,8
DQ,Skovborg Nielsen Pia,1963,DEN,164.9,30,142.5,150,-157.5,2,80,-85,85,1,-152.5,-160,-160,DQ,DSQ,DQ,DQ
,,,,,,,,,,,,,,,,,,,,
Nation (points),,,,,,,,,,,,,,,,,,,,
1,Great Britain,50,[12+12+9+9+8] 2867.63 IPF Pts,,,,,,,,,,,,,,,,,
2,Norway,37,[12+9+8+8] 2285.76 IPF Pts,,,,,,,,,,,,,,,,,
3,Sweden,30,[9+8+8+5] 2028.53 IPF Pts,,,,,,,,,,,,,,,,,
4,Hungary,21,[12+9] 1165.43 IPF Pts,,,,,,,,,,,,,,,,,
5,Finland,21,[9+6+6] 1612.24 IPF Pts,,,,,,,,,,,,,,,,,
6,France,19,[12+7] 1099.34 IPF Pts,,,,,,,,,,,,,,,,,
7,Ireland,12,[12] 608.23 IPF Pts,,,,,,,,,,,,,,,,,
8,Czechia,12,[12] 597.80 IPF Pts,,,,,,,,,,,,,,,,,
9,Italy,9,[9] 589.13 IPF Pts,,,,,,,,,,,,,,,,,
10,Spain,7,[7] 480.47 IPF Pts,,,,,,,,,,,,,,,,,
11,Poland,7,[7] 428.77 IPF Pts,,,,,,,,,,,,,,,,,
DQ,Denmark,DQ,,,,,,,,,,,,,,,,,,
,,,,,,,,,,,,,,,,,,,,
Best Lifters of Masters 2 by IPF Points System,,,,,,,,,,,,,,,,,,,,
Rnk,Lifter,Nation,,Bwt,,Total,,IPF Points,,C.Rnk,,,,,,,,,,
1,Blikra Inger,Norway,,82.4,,418.5,,644.2449,,1,,,,,,,,,,
2,Mineo Joy,Great Britain,,67.1,,362.5,,609.8767,,1,,,,,,,,,,
3,Barry Karen,Ireland,,62.5,,350,,608.2344,,1,,,,,,,,,,
,,,,,,,,,,,,,,,,,,,,
Masters 3,,,,,,,,,,,,,,,,,,,,
-52kg,,,,,,,,,,,,,,,,,,,,
1,Kaminski Linda,1956,GBR,47.7,4,92.5,97.5,100,1,37.5,40,-42.5,1,127.5,135,140,1,280,552.27,12
-57kg,,,,,,,,,,,,,,,,,,,,
1,Guennec Edith,1956,FRA,55.4,5,90,100,105.5-c3,1,52.5,-57.5,-57.5,2,145,-150,-150,1,303,555.3,12
2,Hunter Jennifer,1958,GBR,52.1,7,72.5,80,85,3,60,65,67.5,1,110,122.5,127.5,2,280,526.82,9
3,Cunniffe Caroline,1957,IRL,55.2,6,77.5,82.5,87.5,2,42.5,45,-47.5,3,100,105,110,3,242.5,439.17,8
-63kg,,,,,,,,,,,,,,,,,,,,
1,Keiml Elisabeth,1959,AUT,59.8,8,107.5-c3,115.0-c3,-120.5,1,62.5,65,67.5,3,125,135.0-c3,145.0-w3,1,327.5,580.07,12
2,Kosztin Flora,1955,HUN,60.2,10,100,-102.5,102.5,3,85.0-w3,90.0-w3,-92.5,1,130,135,-137.5,2,327.5 -w3,578.21,9
3,Loken Kirsti,1954,NOR,61.6,9,100.0-c3,105,-107.5,2,52.5,55,57.5,4,125,132.5,-142.5,3,295,513.27,8
4,Blondan Daisy,1959,FRA,60.8,11,-95,95,-102.5,4,-70,70,72.5,2,125,-133.5,-135,4,292.5,511.81,7
-72kg,,,,,,,,,,,,,,,,,,,,
1,Del Duca Sara,1954,ITA,70.5,14,90,95,-97.5,4,70,-75.5,-75.5,1,137.5,-146,148.0-w3,1,313,514.09,12
2,Fitzpatrick Gloria,1959,GBR,69.7,16,100,-110,110,2,55,60,62.5,4,130,-140,140,2,312.5,515.74,9
3,Park Joyce,1958,GBR,68.6,13,100,105.0-c3,110.0-c3,1,57.5,60,62.5,3,122.5,130,137.5,3,310,515.02,8
4,Liege Marie Christine,1955,FRA,65.2,15,92.5,100,105,3,60,65,67.5,2,112.5,122.5,-130,4,295,500.43,7
5,Billard Regine,1955,FRA,66.5,17,65,70,-72.5,5,37.5,40,-42.5,5,105,110,-112.5,5,220,367.03,6
-84kg,,,,,,,,,,,,,,,,,,,,
1,Michalsen Tove,1959,NOR,79.9,18,105,-115.5,115.5,1,52.5,57.5,62.5,1,127.5,137.5,-142.5,1,315.5,492.71,12
84+kg,,,,,,,,,,,,,,,,,,,,
1,Pettersen Marit,1954,NOR,89.6,19,-115,115,-125.5,1,60,62.5,-65,1,142.5,-155.5,-155.5,1,320,478.74,12
,,,,,,,,,,,,,,,,,,,,
Nation (points),,,,,,,,,,,,,,,,,,,,
1,Great Britain,38,[12+9+9+8] 2109.85 IPF Pts,,,,,,,,,,,,,,,,,
2,Norway,32,[12+12+8] 1484.72 IPF Pts,,,,,,,,,,,,,,,,,
3,France,32,[12+7+7+6] 1934.58 IPF Pts,,,,,,,,,,,,,,,,,
4,Austria,12,[12] 580.07 IPF Pts,,,,,,,,,,,,,,,,,
5,Italy,12,[12] 514.09 IPF Pts,,,,,,,,,,,,,,,,,
6,Hungary,9,[9] 578.21 IPF Pts,,,,,,,,,,,,,,,,,
7,Ireland,8,[8] 439.17 IPF Pts,,,,,,,,,,,,,,,,,
,,,,,,,,,,,,,,,,,,,,
Best Lifters of Masters 3 by IPF Points System,,,,,,,,,,,,,,,,,,,,
Rnk,Lifter,Nation,,Bwt,,Total,,IPF Points,,C.Rnk,,,,,,,,,,
1,Keiml Elisabeth,Austria,,59.8,,327.5,,580.0718,,1,,,,,,,,,,
2,Kosztin Flora,Hungary,,60.2,,327.5,,578.2075,,2,,,,,,,,,,
3,Guennec Edith,France,,55.4,,303,,555.3034,,1,,,,,,,,,,
,,,,,,,,,,,,,,,,,,,,
Masters 4,,,,,,,,,,,,,,,,,,,,
-57kg,,,,,,,,,,,,,,,,,,,,
1,Fernstrom Britten,1949,SWE,54.9,1,72.5-c4,77.5,-80,1,47.5-c4,50.0-c4,53.0-w4,1,-105,105.0-c4,110.0-c4,1,240.5 -c4,436.39,12
-63kg,,,,,,,,,,,,,,,,,,,,
1,Hykova Adina,1943,CZE,60.5,2,57.5,65,70,1,57.5,61.0-w4,61.5-w4,1,100,110,115,1,246.5,429.05,12
-72kg,,,,,,,,,,,,,,,,,,,,
1,Clausen Anne Mari,1942,NOR,70.5,3,-60,62.5,67.5,1,45,47.5,-50,1,82.5,90,95,1,210,342.69,12
,,,,,,,,,,,,,,,,,,,,
Nation (points),,,,,,,,,,,,,,,,,,,,
1,Sweden,12,[12] 436.39 IPF Pts,,,,,,,,,,,,,,,,,
2,Czechia,12,[12] 429.05 IPF Pts,,,,,,,,,,,,,,,,,
3,Norway,12,[12] 342.69 IPF Pts,,,,,,,,,,,,,,,,,
,,,,,,,,,,,,,,,,,,,,
Best Lifters of Masters 4 by IPF Points System,,,,,,,,,,,,,,,,,,,,
Rnk,Lifter,Nation,,Bwt,,Total,,IPF Points,,C.Rnk,,,,,,,,,,
1,Fernstrom Britten,Sweden,,54.9,,240.5,,436.3877,,1,,,,,,,,,,
2,Hykova Adina,Czechia,,60.5,,246.5,,429.05,,1,,,,,,,,,,
3,Clausen Anne Mari,Norway,,70.5,,210,,342.6905,,1,,,,,,,,,,
,,,,,,,,,,,,,,,,,,,,
Abbreviations:,,,,,,,,,,,,,,,,,,,,
nb - New pers. bestlifts; n - National Record; c - Continental Record; w - World Record; cp - Competition's Record;,,,,,,,,,,,,,,,,,,,,
1..4 - Master's Record; j - Junior's Record; s - Subjunior's Record; ps. - Personally; X - the refused attempt.,,,,,,,,,,,,,,,,,,,,
DSQ - Disqualification; DR - Removed by a Doctor; TD - Technical Disqualification; DD - Doping Disqualification.,,,,,,,,,,,,,,,,,,,,
AUT = Austria,,,FRA = France,,,,,NED = Netherlands,,,,,,,,,,,,
CRO = Croatia,,,GBR = Great Britain,,,,,NOR = Norway,,,,,,,,,,,,
CZE = Czechia,,,GER = Germany,,,,,POL = Poland,,,,,,,,,,,,
DEN = Denmark,,,HUN = Hungary,,,,,SWE = Sweden,,,,,,,,,,,,
ESP = Spain,,,IRL = Ireland,,,,,,,,,,,,,,,,,
FIN = Finland,,,ITA = Italy,,,,,,,,,,,,,,,,,
