Name,Best3BenchKg,TotalKg,BodyweightKg,Division,Sex,Event,Equipment,Place
R. Gorumba,188.24,188.24,70.76,Open,M,B,Raw,1
Randy Wilson,208.65,208.65,113.4,Open,M,B,Raw,2
D. Lorentz,172.37,172.37,78.47,Open,M,B,Raw,3
B. Becker,158.76,158.76,74.84,Open,M,B,Raw,4
D. Mapere,158.76,158.76,88.45,Open,M,B,Raw,5
